Classification by Ensemble
…
            March 7, 2018

Model Matrix

Final model matrix

## # A tibble: 178 x 5
##    rf          glmnet      xgbTree     C5.0        class      
##    <fct>       <fct>       <fct>       <fct>       <chr>      
##  1 dusk        dusk        dusk        oval        oval       
##  2 scene       flowers     dusk        dusk        flowers    
##  3 water       cold        cold        water       cold       
##  4 scene       scene       scene       scene       scene      
##  5 water       water       water       water       water      
##  6 impressions impressions impressions impressions impressions
##  7 impressions impressions impressions impressions impressions
##  8 impressions impressions impressions impressions impressions
##  9 cold        cold        oval        impressions cold       
## 10 impressions impressions impressions impressions impressions
## # ... with 168 more rows
…
