Homework 2
…
3 Graduate Student Problem

library(tidyverse)
library(rsample)
library(magrittr)

set.seed(8456)

d <- tibble(
  x = runif(200, -pi, pi),
  y = rnorm(200, sin(x), 0.5 * abs(x) + 0.5)
)
d

## # A tibble: 200 x 2
##         x      y
##     <dbl>  <dbl>
##  1 -3.12  -1.61 
##  2 -1.66  -1.99 
##  3  1.23   0.393
##  4  0.213  0.474
##  5  1.99   1.74 
##  6  1.26   1.51 
##  7 -0.641  0.397
##  8  1.99   1.65 
##  9  2.49   3.71 
## 10 -2.60  -0.626
## # ... with 190 more rows
…
