Homework 3
…
9.7: 3

9.7: 7

#2

Feature creation:

source("Undergrad1.R")

library(tidyverse)
as_tibble(train)

## # A tibble: 178 x 1,366
##    class    wholeR wholeG wholeB tophfR tophfG tophfB btmhfR btmhfG btmhfB
##    <fct>     <dbl>  <dbl>  <dbl>  <dbl>  <dbl>  <dbl>  <dbl>  <dbl>  <dbl>
##  1 oval      0.537  0.471  0.390 0.600   0.495  0.393  0.474  0.446  0.387
##  2 flowers   0.771  0.665  0.484 0.934   0.791  0.613  0.608  0.539  0.356
##  3 cold      0.528  0.539  0.552 0.561   0.574  0.589  0.496  0.504  0.515
##  4 scene     0.540  0.577  0.511 0.613   0.704  0.699  0.467  0.450  0.324
##  5 water     0.146  0.410  0.488 0.0970  0.475  0.660  0.195  0.345  0.316
##  6 impress  0.623  0.596  0.595 0.632   0.591  0.597  0.613  0.600  0.593
##  7 impress  0.649  0.614  0.516 0.665   0.616  0.492  0.633  0.611  0.541
##  8 impress  0.394  0.437  0.373 0.425   0.487  0.436  0.364  0.386  0.311
##  9 cold      0.463  0.506  0.514 0.288   0.404  0.491  0.638  0.608  0.537
## 10 impress  0.609  0.608  0.487 0.546   0.598  0.522  0.673  0.617  0.451
## # ... with 168 more rows, and 1,356 more variables: lfthfR <dbl>,
## #   lfthfG <dbl>, lfthfB <dbl>, rthfR <dbl>, rthfG <dbl>, rthfB <dbl>,
## #   tp3.4R <dbl>, tp3.4G <dbl>, tp3.4B <dbl>, btm3.4R <dbl>,
## #   btm3.4G <dbl>, btm3.4B <dbl>, x4vert1R <dbl>, x4vert1G <dbl>,
## #   x4vert1B <dbl>, x4vert2R <dbl>, x4vert2G <dbl>, x4vert2B <dbl>,
## #   x4vert3R <dbl>, x4vert3G <dbl>, x4vert3B <dbl>, x4vert4R <dbl>,
## #   x4vert4G <dbl>, x4vert4B <dbl>, x4hori1R <dbl>, x4hori1G <dbl>,
## #   x4hori1B <dbl>, x4hori2R <dbl>, x4hori2G <dbl>, x4hori2B <dbl>,
## #   x4hori3R <dbl>, x4hori3G <dbl>, x4hori3B <dbl>, x4hori4R <dbl>,
…
as_tibble(test)

## # A tibble: 63 x 1,366
##    class wholeR wholeG wholeB tophfR tophfG tophfB btmhfR btmhfG btmhfB
##    <fct>  <dbl>  <dbl>  <dbl>  <dbl>  <dbl>  <dbl>  <dbl>  <dbl>  <dbl>
##  1 blah   0.433  0.380  0.302  0.558  0.430  0.363  0.308  0.330  0.240
##  2 blah   0.292  0.444  0.446  0.283  0.539  0.561  0.300  0.349  0.331
##  3 blah   0.552  0.328  0.258  0.653  0.369  0.300  0.450  0.288  0.216
##  4 blah   0.528  0.532  0.630  0.627  0.633  0.699  0.429  0.431  0.562
##  5 blah   0.451  0.527  0.590  0.609  0.699  0.777  0.293  0.355  0.404
##  6 blah   0.584  0.525  0.456  0.624  0.561  0.500  0.544  0.488  0.411
##  7 blah   0.731  0.560  0.467  0.807  0.602  0.433  0.655  0.518  0.502
##  8 blah   0.455  0.386  0.305  0.738  0.601  0.470  0.171  0.171  0.139
##  9 blah   0.403  0.493  0.445  0.495  0.592  0.603  0.312  0.394  0.287
## 10 blah   0.314  0.437  0.499  0.368  0.517  0.628  0.260  0.357  0.371
## # ... with 53 more rows, and 1,356 more variables: lfthfR <dbl>,
## #   lfthfG <dbl>, lfthfB <dbl>, rthfR <dbl>, rthfG <dbl>, rthfB <dbl>,
## #   tp3.4R <dbl>, tp3.4G <dbl>, tp3.4B <dbl>, btm3.4R <dbl>,
## #   btm3.4G <dbl>, btm3.4B <dbl>, x4vert1R <dbl>, x4vert1G <dbl>,
## #   x4vert1B <dbl>, x4vert2R <dbl>, x4vert2G <dbl>, x4vert2B <dbl>,
## #   x4vert3R <dbl>, x4vert3G <dbl>, x4vert3B <dbl>, x4vert4R <dbl>,
## #   x4vert4G <dbl>, x4vert4B <dbl>, x4hori1R <dbl>, x4hori1G <dbl>,
## #   x4hori1B <dbl>, x4hori2R <dbl>, x4hori2G <dbl>, x4hori2B <dbl>,
## #   x4hori3R <dbl>, x4hori3G <dbl>, x4hori3B <dbl>, x4hori4R <dbl>,
…
## [1] 0.3968254

This is well below my own submitted accuracy of ~55%. This leads me to believe that the manual relabeling done by the winning team was the recipe for success, like the class was discussing during the presentation.

#3

library(ISLR)
library(caret)
carseats <- as_tibble(ISLR::Carseats)
carseats

## # A tibble: 400 x 11
##    Sales CompPrice Income Advertising Population Price ShelveLoc   Age
##  * <dbl>     <dbl>  <dbl>       <dbl>      <dbl> <dbl> <fct>     <dbl>
##  1  9.50      138.    73.         11.       276.  120. Bad         42.
##  2 11.2       111.    48.         16.       260.   83. Good        65.
##  3 10.1       113.    35.         10.       269.   80. Medium      59.
##  4  7.40      117.   100.          4.       466.   97. Medium      55.
##  5  4.15      141.    64.          3.       340.  128. Bad         38.
##  6 10.8       124.   113.         13.       501.   72. Bad         78.
##  7  6.63      115.   105.          0.        45.  108. Medium      71.
##  8 11.8       136.    81.         15.       425.  120. Good        67.
##  9  6.54      132.   110.          0.       108.  124. Medium      76.
## 10  4.69      132.   113.          0.       131.  124. Medium      76.
## # ... with 390 more rows, and 3 more variables: Education <dbl>,
## #   Urban <fct>, US <fct>
…
